10:16:47,945 30.04.2015;Fehler;;Fehler;;Fehler;;Fehler;;Fehler;;Fehler;;Fehler
;0,000000;0,000000;0,000000;11240580;10:16:47,945 30.04.2015;Fehler;;;;;;;
;0,000000;0,000000;0,000000;11240580;10:16:47,945 30.04.2015;Fehler;;;;;;;
;0,000000;0,000000;0,000000;11240580;10:16:47,945 30.04.2015;Fehler;;;;;;;
;0,000000;0,000000;0,000000;11240580;10:16:47,945 30.04.2015;Fehler;;;;;;;
;0,000000;0,000000;0,000000;11240580;10:16:47,945 30.04.2015;Fehler;;;;;;;
;0,000000;0,000000;0,000000;11240580;10:16:47,945 30.04.2015;Fehler;;;;;;;
